37:490  1:613  Found UEFI Acpi 2.0 RSDP at 89D0E014
37:490  0:000  Saving ACPI tables from RSDP 89D0E014 to EFI\CLOVER\ACPI\origin ...
37:490  0:000   89D0E014: 'RSD PTR ', Rev: 2 (Acpi 2.0 or newer), Len: 36 -> RSDP.aml
37:502  0:011    (Xsdt: 89CAE188, Rsdt: 89CAE0C4)
37:502  0:000    89CAE188: 'XSDT', 'CB-01', Rev: 1, Len: 212 -> XSDT.aml
37:512  0:009    89CAE0C4: 'RSDT', 'CB-01', Rev: 1, Len: 124 -> RSDT.aml
37:521  0:009    Tables in Xsdt: 22
37:521  0:000    0. 89CF4000: 'FACP', 'CB-01', Rev: 5, Len: 268 -> FACP.aml
37:530  0:008        (Dsdt: 89CB1000, Facs: 89C4F000, XDsdt: 89CB1000, XFacs: 0)
37:530  0:000        89CB1000: 'DSDT', 'CB-01', Rev: 2, Len: 258780 -> DSDT.aml
37:553  0:022        89C4F000: 'FACS', Ver: 2, Len: 64 -> FACS.aml
37:561  0:008    1. 89D0D000: 'UEFI', 'CB-01', Rev: 1, Len: 566 -> UEFI.aml
37:571  0:009    2. 89D0C000: 'SSDT', 'CB-01', Rev: 2, Len: 245 -> SSDT-0-CB-01.aml
37:580  0:009    3. 89D0A000: 'SSDT', 'CB-01', Rev: 2, Len: 6940 -> SSDT-1-CB-01.aml (Found hidden SSDT 9 pcs)
37:589  0:009        * 893A2018: 'SSDT', 'Cpu0Ist', Rev: 2, Len: 1442  53 53 44 54 A2 05 00 00 02 5E 50 6D 52 65 66 00 Internal length = 1442 -> SSDT-x1_0-Cpu0Ist.aml
37:598  0:009        * 893A2698: 'SSDT', 'ApIst', Rev: 2, Len: 1532  53 53 44 54 FC 05 00 00 02 29 50 6D 52 65 66 00 Internal length = 1532 -> SSDT-x1_1-ApIst.aml
37:608  0:009        * 8939F018: 'SSDT', 'Cpu0Cst', Rev: 2, Len: 1024  53 53 44 54 00 04 00 00 02 DF 50 6D 52 65 66 00 Internal length = 1024 -> SSDT-x1_2-Cpu0Cst.aml
37:620  0:012        * 893A1A98: 'SSDT', 'ApCst', Rev: 2, Len: 778  53 53 44 54 0A 03 00 00 02 EF 50 6D 52 65 66 00 Internal length = 778 -> SSDT-x1_3-ApCst.aml
37:633  0:012        * 893A2D18: 'SSDT', 'Cpu0Hwp', Rev: 2, Len: 283  53 53 44 54 1B 01 00 00 02 67 50 6D 52 65 66 00 Internal length = 283 -> SSDT-x1_4-Cpu0Hwp.aml
37:653  0:020        * 8939F698: 'SSDT', 'ApHwp', Rev: 2, Len: 791  53 53 44 54 17 03 00 00 02 E9 50 6D 52 65 66 00 Internal length = 791 -> SSDT-x1_5-ApHwp.aml
37:662  0:009        * 893A1018: 'SSDT', 'HwpLvt', Rev: 2, Len: 1828  53 53 44 54 24 07 00 00 02 D0 50 6D 52 65 66 00 Internal length = 1828 -> SSDT-x1_6-HwpLvt.aml
37:672  0:009        * 8957D818: 'SSDT', 'Cpu0Psd', Rev: 2, Len: 244  53 53 44 54 F4 00 00 00 02 3D 50 6D 52 65 66 00 Internal length = 244 -> SSDT-x1_7-Cpu0Psd.aml
37:680  0:008        * 893A0018: 'SSDT', 'ApPsd', Rev: 2, Len: 2736  53 53 44 54 B0 0A 00 00 02 B1 50 6D 52 65 66 00 Internal length = 2736 -> SSDT-x1_8-ApPsd.aml
37:689  0:008  
37:689  0:000    4. 89D06000: 'SSDT', 'CB-01', Rev: 2, Len: 12742 -> SSDT-2-CB-01.aml
37:698  0:009    5. 89D05000: 'UEFI', 'CB-01', Rev: 1, Len: 66 -> UEFI.aml
37:712  0:014    6. 89D04000: 'MSDM', 'CB-01', Rev: 3, Len: 85 -> MSDM.aml
37:721  0:008    7. 89CFC000: 'SSDT', 'CB-01', Rev: 2, Len: 29423 -> SSDT-3-CB-01.aml
37:730  0:009    8. 89CFB000: 'LPIT', 'CB-01', Rev: 1, Len: 148 -> LPIT.aml
37:739  0:008    9. 89CFA000: 'WSMT', 'CB-01', Rev: 1, Len: 40 -> WSMT.aml
37:748  0:008    10. 89CF9000: 'SSDT', 'CB-01', Rev: 2, Len: 3119 -> SSDT-4-CB-01.aml
37:757  0:008    11. 89CF8000: 'DBGP', 'CB-01', Rev: 1, Len: 52 -> DBGP.aml
37:766  0:008    12. 89CF7000: 'DBG2', 'CB-01', Rev: 0, Len: 84 -> DBG2.aml
37:775  0:009    13. 89CF6000: 'SSDT', 'CB-01', Rev: 2, Len: 2975 -> SSDT-5-CB-01.aml
37:784  0:008    14. 89CF5000: 'ASF!', 'CB-01', Rev: 32, Len: 165 -> ASF!.aml
37:793  0:008    15. 89CF3000: 'HPET', 'CB-01', Rev: 1, Len: 56 -> HPET.aml
37:802  0:009    16. 89CF2000: 'APIC', 'CB-01', Rev: 3, Len: 300 -> APIC.aml
37:811  0:008    17. 89CF1000: 'MCFG', 'CB-01', Rev: 1, Len: 60 -> MCFG.aml
37:820  0:008    18. 89CB0000: 'DMAR', 'CB-01', Rev: 1, Len: 168 -> DMAR.aml
37:828  0:008    19. 89CAF000: 'NHLT', 'CB-01', Rev: 0, Len: 45 -> NHLT.aml
37:837  0:008    20. 89CAD000: 'FPDT', 'CB-01', Rev: 1, Len: 68 -> FPDT.aml
37:845  0:008    21. 89CAC000: 'BGRT', 'CB-01', Rev: 1, Len: 56 -> BGRT.aml
37:854  0:008    Tables in Rsdt: 22
37:854  0:000    0. 89CF4000: 'FACP', 'CB-01', Rev: 5, Len: 268
37:854  0:000        (Dsdt: 89CB1000, Facs: 89C4F000, XDsdt: 89CB1000, XFacs: 0)
37:854  0:000        89CB1000: 'DSDT', 'CB-01', Rev: 2, Len: 258780
37:859  0:005        89C4F000: 'FACS', Ver: 2, Len: 64
37:859  0:000    1. 89D0D000: 'UEFI', 'CB-01', Rev: 1, Len: 566
37:859  0:000    2. 89D0C000: 'SSDT', 'CB-01', Rev: 2, Len: 245
37:859  0:000    3. 89D0A000: 'SSDT', 'CB-01', Rev: 2, Len: 6940
37:859  0:000    4. 89D06000: 'SSDT', 'CB-01', Rev: 2, Len: 12742
37:859  0:000    5. 89D05000: 'UEFI', 'CB-01', Rev: 1, Len: 66
37:859  0:000    6. 89D04000: 'MSDM', 'CB-01', Rev: 3, Len: 85
37:859  0:000    7. 89CFC000: 'SSDT', 'CB-01', Rev: 2, Len: 29423
37:859  0:000    8. 89CFB000: 'LPIT', 'CB-01', Rev: 1, Len: 148
37:859  0:000    9. 89CFA000: 'WSMT', 'CB-01', Rev: 1, Len: 40
37:859  0:000    10. 89CF9000: 'SSDT', 'CB-01', Rev: 2, Len: 3119
37:859  0:000    11. 89CF8000: 'DBGP', 'CB-01', Rev: 1, Len: 52
37:859  0:000    12. 89CF7000: 'DBG2', 'CB-01', Rev: 0, Len: 84
37:859  0:000    13. 89CF6000: 'SSDT', 'CB-01', Rev: 2, Len: 2975
37:859  0:000    14. 89CF5000: 'ASF!', 'CB-01', Rev: 32, Len: 165
37:859  0:000    15. 89CF3000: 'HPET', 'CB-01', Rev: 1, Len: 56
37:859  0:000    16. 89CF2000: 'APIC', 'CB-01', Rev: 3, Len: 300
37:859  0:000    17. 89CF1000: 'MCFG', 'CB-01', Rev: 1, Len: 60
37:859  0:000    18. 89CB0000: 'DMAR', 'CB-01', Rev: 1, Len: 168
37:859  0:000    19. 89CAF000: 'NHLT', 'CB-01', Rev: 0, Len: 45
37:859  0:000    20. 89CAD000: 'FPDT', 'CB-01', Rev: 1, Len: 68
37:859  0:000    21. 89CAC000: 'BGRT', 'CB-01', Rev: 1, Len: 56
37:859  0:000  Found UEFI Acpi 1.0 RSDP at 89D0E000
37:859  0:000  Printing ACPI tables from RSDP 89D0E000 ...
37:859  0:000   89D0E000: 'RSD PTR ', Rev: 0 (Acpi 1.0), Len: 20
37:859  0:000    (Rsdt: 89CAE000)
37:859  0:000    89CAE000: 'RSDT', 'CB-01', Rev: 1, Len: 124
37:859  0:000    Tables in Rsdt: 22
37:859  0:000    0. 89CF4000: 'FACP', 'CB-01', Rev: 5, Len: 268
37:859  0:000        (Dsdt: 89CB1000, Facs: 89C4F000, XDsdt: 89CB1000, XFacs: 0)
37:859  0:000        89CB1000: 'DSDT', 'CB-01', Rev: 2, Len: 258780
37:865  0:005        89C4F000: 'FACS', Ver: 2, Len: 64
37:865  0:000    1. 89D0D000: 'UEFI', 'CB-01', Rev: 1, Len: 566
37:865  0:000    2. 89D0C000: 'SSDT', 'CB-01', Rev: 2, Len: 245
37:865  0:000    3. 89D0A000: 'SSDT', 'CB-01', Rev: 2, Len: 6940
37:865  0:000    4. 89D06000: 'SSDT', 'CB-01', Rev: 2, Len: 12742
37:865  0:000    5. 89D05000: 'UEFI', 'CB-01', Rev: 1, Len: 66
37:865  0:000    6. 89D04000: 'MSDM', 'CB-01', Rev: 3, Len: 85
37:865  0:000    7. 89CFC000: 'SSDT', 'CB-01', Rev: 2, Len: 29423
37:865  0:000    8. 89CFB000: 'LPIT', 'CB-01', Rev: 1, Len: 148
37:865  0:000    9. 89CFA000: 'WSMT', 'CB-01', Rev: 1, Len: 40
37:865  0:000    10. 89CF9000: 'SSDT', 'CB-01', Rev: 2, Len: 3119
37:865  0:000    11. 89CF8000: 'DBGP', 'CB-01', Rev: 1, Len: 52
37:865  0:000    12. 89CF7000: 'DBG2', 'CB-01', Rev: 0, Len: 84
37:865  0:000    13. 89CF6000: 'SSDT', 'CB-01', Rev: 2, Len: 2975
37:865  0:000    14. 89CF5000: 'ASF!', 'CB-01', Rev: 32, Len: 165
37:865  0:000    15. 89CF3000: 'HPET', 'CB-01', Rev: 1, Len: 56
37:865  0:000    16. 89CF2000: 'APIC', 'CB-01', Rev: 3, Len: 300
37:865  0:000    17. 89CF1000: 'MCFG', 'CB-01', Rev: 1, Len: 60
37:865  0:000    18. 89CB0000: 'DMAR', 'CB-01', Rev: 1, Len: 168
37:865  0:000    19. 89CAF000: 'NHLT', 'CB-01', Rev: 0, Len: 45
37:865  0:000    20. 89CAD000: 'FPDT', 'CB-01', Rev: 1, Len: 68
37:865  0:000    21. 89CAC000: 'BGRT', 'CB-01', Rev: 1, Len: 56
